<svg xmlns="http://www.w3.org/2000/svg" width="34.178" height="27" viewBox="0 0 34.178 27">
  <defs>
    <style>
      .cls-1 {
        fill: none;
        stroke: #c33;
        stroke-linecap: round;
        stroke-linejoin: round;
        stroke-width: 3px;
      }
    </style>
  </defs>
  <g id="Icon_feather-mail" data-name="Icon feather-mail" transform="translate(-0.911 -4.5)">
    <path id="Path_10" data-name="Path 10" class="cls-1" d="M6,6H30a3.009,3.009,0,0,1,3,3V27a3.009,3.009,0,0,1-3,3H6a3.009,3.009,0,0,1-3-3V9A3.009,3.009,0,0,1,6,6Z"/>
    <path id="Path_11" data-name="Path 11" class="cls-1" d="M33,9,18,19.5,3,9"/>
  </g>
</svg>
